[
  {
    "url": "https://demo.hasthemes.com/neha-preview-tm/neha/assets/img/product/sidebar-product/1.jpg",
    "title": "Flying Drone",
    "rating": 2,
    "price": 140,
    "currency": "$"
  },
  {
    "url": "https://demo.hasthemes.com/neha-preview-tm/neha/assets/img/product/sidebar-product/2.jpg",
    "title": "Flying Drone",
    "rating": 2,
    "price": 140,
    "currency": "$"
  },
  {
    "url": "https://demo.hasthemes.com/neha-preview-tm/neha/assets/img/product/sidebar-product/3.jpg",
    "title": "Flying Drone",
    "rating": 2,
    "price": 140,
    "currency": "$"
  },
  {
    "url": "https://demo.hasthemes.com/neha-preview-tm/neha/assets/img/product/sidebar-product/4.jpg",
    "title": "Flying Drone",
    "rating": 2,
    "price": 140,
    "currency": "$"
  }
]